{
  "project_info": {
    "project_number": "238043856276",
    "firebase_url": "https://easi-em.firebaseio.com",
    "project_id": "easi-em",
    "storage_bucket": "easi-em.appspot.com"
  },
  "client": [
    {
      "client_info": {
        "mobilesdk_app_id": "1:238043856276:android:d79b3762349bdfbec5a381",
        "android_client_info": {
          "package_name": "com.easipos.em.demo"
        }
      },
      "oauth_client": [
        {
          "client_id": "238043856276-hppa3nnp5rfv99peebauv8f593kvt287.apps.googleusercontent.com",
          "client_type": 3
        }
      ],
      "api_key": [
        {
          "current_key": "AIzaSyBkGQPhDLGDWhceOTeYDxb2xRTqmTbeuSw"
        }
      ],
      "services": {
        "appinvite_service": {
          "other_platform_oauth_client": [
            {
              "client_id": "238043856276-hppa3nnp5rfv99peebauv8f593kvt287.apps.googleusercontent.com",
              "client_type": 3
            }
          ]
        }
      }
    }
  ],
  "configuration_version": "1"
}